<?xml version="1.0" encoding="UTF-8"?>
<svg width="78px" height="25px" viewBox="0 0 78 25" version="1.1" xmlns="http://www.w3.org/2000/svg" xmlns:xlink="http://www.w3.org/1999/xlink">
    <!-- Generator: sketchtool 52.6 (67491) - http://www.bohemiancoding.com/sketch -->
    <title>99280810-3EFC-4D71-8A67-630B8C9FA67F</title>
    <desc>Created with sketchtool.</desc>
    <defs>
        <linearGradient x1="3.327%" y1="91.386%" x2="75.085%" y2="50%" id="linearGradient-1">
            <stop stop-color="#5F5096" offset="0%"></stop>
            <stop stop-color="#F06E5A" offset="100%"></stop>
        </linearGradient>
    </defs>
    <g id="Page-1" stroke="none" stroke-width="1" fill="none" fill-rule="evenodd">
        <g id="дашборд" transform="translate(-48.000000, -8.000000)">
            <g id="logo-header" transform="translate(48.000000, 8.000000)">
                <path d="M11.9387755,25 L3.97879592,25 C1.78136761,25 2.22081576e-15,23.2514621 0,21.0945312 L0,2.34375 C-5.38322373e-17,1.91227754 0.356344791,1.5625 0.795918367,1.5625 L11.9387755,1.5625 C18.5321633,1.5625 23.877551,6.80859375 23.877551,13.28125 C23.877551,19.753125 18.5321633,25 11.9387755,25" id="Path" fill="#5F5096"></path>
                <path d="M78,12.890625 C78,19.578125 72.4763265,25 65.6632653,25 C58.8502041,25 53.3265306,19.578125 53.3265306,12.890625 C53.3265306,6.203125 58.8502041,0.78125 65.6632653,0.78125 C72.4763265,0.78125 78,6.203125 78,12.890625" id="Path" fill="#F06E5A"></path>
                <path d="M37.147102,1.178125 L26.8041429,19.0453125 C25.2727959,21.6929687 27.1869796,25 30.2504694,25 L50.9363878,25 C51.5500408,25 51.9336735,24.3375 51.626449,23.8078125 L38.5280204,1.178125 C38.3881581,0.932702146 38.1240518,0.780673873 37.8375612,0.780673873 C37.5510706,0.780673873 37.2869644,0.932702146 37.147102,1.178125" id="Path" fill="url(#linearGradient-1)"></path>
            </g>
        </g>
    </g>
</svg>